<?xml version="1.0" encoding="UTF-8"?>
<svg width="328px" height="118px" viewBox="0 0 328 118" version="1.1" xmlns="http://www.w3.org/2000/svg" xmlns:xlink="http://www.w3.org/1999/xlink">
    <!-- Generator: Sketch 51.3 (57544) - http://www.bohemiancoding.com/sketch -->
    <title>Robot</title>
    <desc>Created with Sketch.</desc>
    <defs></defs>
    <g id="Design" stroke="none" stroke-width="1" fill="none" fill-rule="evenodd" opacity="0.5">
        <g id="Flex_Resources_2" transform="translate(-41.000000, -100.000000)" stroke="#010202">
            <g id="Robot" transform="translate(0.000000, 100.000000)">
                <g transform="translate(198.000000, 98.500000) rotate(40.000000) translate(-198.000000, -98.500000) translate(84.000000, -74.000000)" id="Group-67">
                    <g>
                        <path d="M172.752261,46.7088812 C181.526693,54.9102947 185.221798,69.9672875 181.161447,85.9994208 C175.547296,108.16581 157.240345,123.793641 140.270957,120.905339 C140.119942,120.879255 139.973442,120.842136 139.823431,120.813544 C143.180382,123.951149 147.278362,126.090037 151.973879,126.889111 C168.943267,129.777413 187.250218,114.149582 192.864369,91.9831922 C198.42835,70.0144393 189.432161,49.8785896 172.752261,46.7088812 Z" id="Stroke-1" stroke-width="0.9"></path>
                        <path d="M181.161598,85.9994709 C185.221949,69.9673376 181.526844,54.9098433 172.752411,46.7089313 C172.601898,46.6803393 172.4559,46.6432197 172.304383,46.6171357 C155.335497,43.728332 137.028045,59.3566648 131.413893,81.5230541 C127.353542,97.5551874 131.048647,112.61218 139.823079,120.813594 C139.973593,120.841684 140.119591,120.879305 140.271108,120.905389 C157.240495,123.793691 175.547446,108.16586 181.161598,85.9994709 Z" id="Stroke-3" stroke-width="0.9"></path>
                        <path d="M126.740601,160.674771 C131.573588,163.571601 136.938389,165.596121 142.763259,166.587815 C176.516401,172.333319 212.931625,141.247704 224.098218,97.1562024 C235.265312,53.0647008 216.955351,12.6640861 183.202711,6.91858207 C183.048183,6.89199645 182.893656,6.87243344 182.739631,6.84735267" id="Stroke-5" stroke-width="0.9"></path>
                        <path d="M101.86715,76.3499937 C112.98307,32.4596399 149.116833,1.46281115 182.73953,6.84765363 C177.906544,3.95082407 172.542244,1.92630388 166.716872,0.934610016 C132.96373,-4.81089402 96.5485065,26.2747207 85.3819138,70.3662223 C74.2148195,114.457724 92.5242786,154.858339 126.277923,160.603843 C126.431948,160.630428 126.586475,160.649991 126.740501,160.67457 C103.568955,146.786342 92.6271295,112.831988 101.86715,76.3499937 Z" id="Stroke-7" stroke-width="0.9"></path>
                        <path d="M182.739731,6.84755331 C149.117034,1.46271082 112.983271,32.4595396 101.867351,76.3498934 C92.6273302,112.831888 103.568654,146.786743 126.740701,160.674972" id="Stroke-9" stroke-width="0.9"></path>
                        <path d="M94.5516948,139.739447 L76.7554865,173.401358 C72.751327,181.132257 75.5664302,190.644392 83.1327412,194.952767 L127.121801,219.998931 L149.668716,230.90656 L153.062794,224.119703 L129.767828,213.212073" id="Stroke-11" stroke-width="0.9"></path>
                        <path d="M126.740601,160.674771 L111.143394,190.946264 C109.621201,193.945925 110.640679,197.610727 113.493411,199.393469 L153.062894,224.119602" id="Stroke-13" stroke-width="0.9"></path>
                        <path d="M129.767978,213.211923 L82.0662531,184.066055 C79.3068399,182.330967 78.3315128,178.77652 79.8180839,175.876681 L96.9746101,142.985752" id="Stroke-15" stroke-width="0.9"></path>
                        <path d="M50.3844267,180.990701 L58.7549812,187.240328 L62.3913861,187.240328 L167.039874,246.357723 C168.963436,247.444222 171.402757,246.783093 172.51455,244.873944 L174.155147,242.05637 L179.003686,244.722456 L167.609317,268.23468 L159.609025,269.688863 L120.091218,344.830365 L113.303061,342.406559 L10.0247475,286.413727 L0.327667775,279.62687 L36.4508952,213.211973 L34.0411749,210.441551 C32.5771807,208.758631 32.3248199,206.338837 33.4105235,204.390061 L45.9131739,181.946278 C46.8077255,180.341109 48.9119035,179.89116 50.3844267,180.990701 Z" id="Stroke-17" stroke-width="0.9"></path>
                        <path d="M149.694855,230.860562 L172.514199,243.870964" id="Stroke-19" stroke-width="0.9"></path>
                        <path d="M69.2747674,191.129053 L79.1032956,191.70892" id="Stroke-21" stroke-width="0.9"></path>
                        <polyline id="Stroke-23" stroke-width="0.9" points="59.256492 196.954966 161.548441 251.509665 174.187557 254.660814"></polyline>
                        <path d="M161.548291,251.509565 L113.303212,342.406308" id="Stroke-25" stroke-width="0.9"></path>
                        <polyline id="Stroke-27" stroke-width="0.9" points="59.256492 196.954966 49.7846808 215.393348 46.6329292 218.316262 10.0250485 286.414079"></polyline>
                        <polyline id="Stroke-29" stroke-width="0.9" points="58.7547805 187.240579 45.097692 211.919059 36.4506945 213.211722"></polyline>
                        <path d="M129.767978,213.211923 L126.621244,219.713863" id="Stroke-31" stroke-width="0.9"></path>
                        <path d="M45.5890181,204.34938 C45.5890181,207.085191 43.3709516,209.302833 40.6346171,209.302833 C37.8977809,209.302833 35.6797144,207.085191 35.6797144,204.34938 C35.6797144,201.613569 37.8977809,199.395425 40.6346171,199.395425 C43.3709516,199.395425 45.5890181,201.613569 45.5890181,204.34938 Z" id="Stroke-33" stroke-width="0.9"></path>
                        <path d="M142.687802,42.2795661 C142.873435,46.5824239 140.018195,50.8697317 136.31155,51.8559078 C132.604404,52.8425855 129.449141,50.1539263 129.264009,45.8515701 C129.078376,41.5487123 131.933114,37.2614045 135.64026,36.2752284 C139.346905,35.2885507 142.502169,37.9772099 142.687802,42.2795661 Z" id="Stroke-35" stroke-width="0.9"></path>
                        <path d="M127.431909,131.441472 C127.617542,135.74433 124.762804,140.031638 121.055658,141.017814 C117.348512,142.004491 114.193248,139.315832 114.008117,135.013476 C113.822985,130.71112 116.677222,126.423812 120.384368,125.437134 C124.091012,124.450457 127.246276,127.139116 127.431909,131.441472 Z" id="Stroke-37" stroke-width="0.9"></path>
                        <path d="M196.172254,127.457441 C196.357385,131.759797 193.502647,136.047607 189.796002,137.033783 C186.088856,138.019959 182.933592,135.331801 182.748461,131.029445 C182.562828,126.726587 185.417566,122.439279 189.124712,121.453103 C192.831357,120.466426 195.98662,123.154583 196.172254,127.457441 Z" id="Stroke-39" stroke-width="0.9"></path>
                        <path d="M210.790973,42.2795661 C210.976606,46.5824239 208.121867,50.8697317 204.414721,51.8559078 C200.708077,52.8425855 197.552311,50.1539263 197.36718,45.8515701 C197.182048,41.5487123 200.036285,37.2614045 203.743431,36.2752284 C207.450076,35.2885507 210.605841,37.9772099 210.790973,42.2795661 Z" id="Stroke-41" stroke-width="0.9"></path>
                        <path d="M164.69939,27.7750527 C164.990884,34.5368297 160.50458,41.2750309 154.678706,42.8245212 C148.853334,44.3750147 143.894418,40.1499073 143.603425,33.3886318 C143.311931,26.6268548 147.798235,19.8891553 153.623607,18.3386617 C159.449481,16.7886698 164.407896,21.0137772 164.69939,27.7750527 Z" id="Stroke-43" stroke-width="0.9"></path>
                        <path d="M155.487315,23.0158752 L153.062543,36.9131329" id="Stroke-45" stroke-width="0.9"></path>
                        <path d="M149.183862,29.9642532 L159.851252,29.9642532" id="Stroke-47" stroke-width="0.9"></path>
                        <path d="M220.096416,63.0429368 C220.387911,69.8047139 215.901606,76.542915 210.075733,78.0924053 C204.25036,79.6428989 199.291444,75.4177914 199.000451,68.656516 C198.708957,61.8947389 203.195261,55.1570394 209.020633,53.6065459 C214.846507,52.056554 219.804922,56.2816614 220.096416,63.0429368 Z" id="Stroke-49" stroke-width="0.9"></path>
                        <path d="M179.369585,141.808611 C179.661079,148.569886 175.174273,155.308087 169.348901,156.858079 C163.523529,158.408573 158.564612,154.183465 158.273118,147.421688 C157.982125,140.660413 162.467928,133.922211 168.293802,132.37222 C174.119676,130.822228 179.07809,135.046833 179.369585,141.808611 Z" id="Stroke-51" stroke-width="0.9"></path>
                        <path d="M123.000292,108.127888 C123.291786,114.889163 118.805482,121.627365 112.979608,123.177356 C107.154236,124.727348 102.19532,120.502743 101.903825,113.740966 C101.612832,106.97969 106.099137,100.241489 111.924509,98.691497 C117.750383,97.1415051 122.708797,101.366111 123.000292,108.127888 Z" id="Stroke-53" stroke-width="0.9"></path>
                        <path d="M205.732466,71.1707132 L213.732758,60.5053643" id="Stroke-55" stroke-width="0.9"></path>
                        <path d="M205.126399,60.5054646 L214.338825,71.1708136" id="Stroke-57" stroke-width="0.9"></path>
                        <path d="M109.647341,106.058222 L114.949929,116.238509" id="Stroke-59" stroke-width="0.9"></path>
                        <path d="M107.328932,116.23871 L117.26884,106.058423" id="Stroke-61" stroke-width="0.9"></path>
                        <path d="M167.035008,140.424001 L170.871094,149.392385" id="Stroke-63" stroke-width="0.9"></path>
                        <path d="M164.10436,148.665143 L173.801942,141.150942" id="Stroke-65" stroke-width="0.9"></path>
                    </g>
                </g>
            </g>
        </g>
    </g>
</svg>